Updated_Pipelining/dumpp.vcd
$date
	Tue Jun 04 22:43:41 2024
$end
$version
	Icarus Verilog
$end
$timescale
	1s
$end
$scope module tb $end
$var reg 1 ! clk $end
$var reg 1 " rst $end
$scope module dut $end
$var wire 1 ! clk $end
$var wire 1 " rst $end
$var wire 32 # WriteDataM [31:0] $end
$var wire 32 $ ResultW [31:0] $end
$var wire 1 % ResultSrcW $end
$var wire 1 & ResultSrcM $end
$var wire 1 ' ResultSrcE $end
$var wire 1 ( RegWriteW $end
$var wire 1 ) RegWriteM $end
$var wire 1 * RegWriteE $end
$var wire 32 + ReadDataW [31:0] $end
$var wire 5 , RD_M [4:0] $end
$var wire 5 - RD_E [4:0] $end
$var wire 5 . RDW [4:0] $end
$var wire 32 / RD2_E [31:0] $end
$var wire 32 0 RD1_E [31:0] $end
$var wire 32 1 PCTargetE [31:0] $end
$var wire 1 2 PCSrcE $end
$var wire 32 3 PCPlus4W [31:0] $end
$var wire 32 4 PCPlus4M [31:0] $end
$var wire 32 5 PCPlus4E [31:0] $end
$var wire 32 6 PCPlus4D [31:0] $end
$var wire 32 7 PCE [31:0] $end
$var wire 32 8 PCD [31:0] $end
$var wire 1 9 MemWriteM $end
$var wire 1 : MemWriteE $end
$var wire 32 ; InstrD [31:0] $end
$var wire 32 < Imm_Ext_E [31:0] $end
$var wire 1 = BranchE $end
$var wire 32 > ALU_ResultW [31:0] $end
$var wire 32 ? ALU_ResultM [31:0] $end
$var wire 1 @ ALUSrcE $end
$var wire 3 A ALUControlE [2:0] $end
$scope module Decode $end
$var wire 3 B ALUControlE [2:0] $end
$var wire 1 @ ALUSrcE $end
$var wire 1 = BranchE $end
$var wire 32 C Imm_Ext_E [31:0] $end
$var wire 1 : MemWriteE $end
$var wire 32 D PCE [31:0] $end
$var wire 32 E PCPlus4E [31:0] $end
$var wire 32 F RD1_E [31:0] $end
$var wire 32 G RD2_E [31:0] $end
$var wire 5 H RD_E [4:0] $end
$var wire 1 * RegWriteE $end
$var wire 1 ' ResultSrcE $end
$var wire 1 ! clk $end
$var wire 1 " rst $end
$var wire 32 I ResultW [31:0] $end
$var wire 1 J ResultSrcD $end
$var wire 1 ( RegWriteW $end
$var wire 1 K RegWriteD $end
$var wire 5 L RDW [4:0] $end
$var wire 32 M RD2_D [31:0] $end
$var wire 32 N RD1_D [31:0] $end
$var wire 32 O PCPlus4D [31:0] $end
$var wire 32 P PCD [31:0] $end
$var wire 1 Q MemWriteD $end
$var wire 32 R InstrD [31:0] $end
$var wire 32 S Imm_Ext_D [31:0] $end
$var wire 2 T ImmSrcD [1:0] $end
$var wire 1 U BranchD $end
$var wire 1 V ALUSrcD $end
$var wire 3 W ALUControlD [2:0] $end
$var reg 3 X ALUControlD_r [2:0] $end
$var reg 1 @ ALUSrcD_r $end
$var reg 1 = BranchD_r $end
$var reg 32 Y Imm_Ext_D_r [31:0] $end
$var reg 1 Z MemWriteD_r $end
$var reg 32 [ PCD_r [31:0] $end
$var reg 32 \ PCPlus4D_r [31:0] $end
$var reg 32 ] RD1_D_r [31:0] $end
$var reg 32 ^ RD2_D_r [31:0] $end
$var reg 5 _ RD_D_r [4:0] $end
$var reg 1 ` RegWriteD_r $end
$var reg 1 a ResultSrcD_r $end
$scope module control $end
$var wire 7 b Op [6:0] $end
$var wire 3 c funct3 [2:0] $end
$var wire 7 d funct7 [6:0] $end
$var wire 1 J ResultSrc $end
$var wire 1 K RegWrite $end
$var wire 1 Q MemWrite $end
$var wire 2 e ImmSrc [1:0] $end
$var wire 1 U Branch $end
$var wire 1 V ALUSrc $end
$var wire 2 f ALUOp [1:0] $end
$var wire 3 g ALUControl [2:0] $end
$scope module ALU_Decoder $end
$var wire 3 h funct3 [2:0] $end
$var wire 7 i funct7 [6:0] $end
$var wire 7 j op [6:0] $end
$var wire 2 k ALUOp [1:0] $end
$var wire 3 l ALUControl [2:0] $end
$upscope $end
$scope module Main_Decoder $end
$var wire 7 m Op [6:0] $end
$var wire 1 J ResultSrc $end
$var wire 1 K RegWrite $end
$var wire 1 Q MemWrite $end
$var wire 2 n ImmSrc [1:0] $end
$var wire 1 U Branch $end
$var wire 1 V ALUSrc $end
$var wire 2 o ALUOp [1:0] $end
$upscope $end
$upscope $end
$scope module extension $end
$var wire 2 p ImmSrc [1:0] $end
$var wire 32 q In [31:0] $end
$var wire 32 r Imm_Ext [31:0] $end
$upscope $end
$scope module rf $end
$var wire 5 s A1 [4:0] $end
$var wire 5 t A2 [4:0] $end
$var wire 1 ! clk $end
$var wire 1 " rst $end
$var wire 1 ( WE3 $end
$var wire 32 u WD3 [31:0] $end
$var wire 32 v RD2 [31:0] $end
$var wire 32 w RD1 [31:0] $end
$var wire 5 x A3 [4:0] $end
$upscope $end
$upscope $end
$scope module Execute $end
$var wire 3 y ALUControlE [2:0] $end
$var wire 1 @ ALUSrcE $end
$var wire 1 = BranchE $end
$var wire 32 z Imm_Ext_E [31:0] $end
$var wire 1 : MemWriteE $end
$var wire 1 9 MemWriteM $end
$var wire 32 { PCE [31:0] $end
$var wire 32 | PCPlus4E [31:0] $end
$var wire 32 } PCPlus4M [31:0] $end
$var wire 1 2 PCSrcE $end
$var wire 32 ~ RD1_E [31:0] $end
$var wire 32 !" RD2_E [31:0] $end
$var wire 5 "" RD_E [4:0] $end
$var wire 5 #" RD_M [4:0] $end
$var wire 1 * RegWriteE $end
$var wire 1 ) RegWriteM $end
$var wire 1 ' ResultSrcE $end
$var wire 1 & ResultSrcM $end
$var wire 32 $" WriteDataM [31:0] $end
$var wire 1 ! clk $end
$var wire 1 " rst $end
$var wire 1 %" ZeroE $end
$var wire 32 &" Src_B [31:0] $end
$var wire 32 '" ResultE [31:0] $end
$var wire 32 (" PCTargetE [31:0] $end
$var wire 32 )" ALU_ResultM [31:0] $end
$var reg 1 *" MemWriteE_r $end
$var reg 32 +" PCPlus4E_r [31:0] $end
$var reg 32 ," RD2_E_r [31:0] $end
$var reg 5 -" RD_E_r [4:0] $end
$var reg 1 ." RegWriteE_r $end
$var reg 32 /" ResultE_r [31:0] $end
$var reg 1 0" ResultSrcE_r $end
$scope module alu $end
$var wire 32 1" A [31:0] $end
$var wire 3 2" ALUControl [2:0] $end
$var wire 1 3" Carry $end
$var wire 1 4" OverFlow $end
$var wire 1 %" Zero $end
$var wire 32 5" Sum [31:0] $end
$var wire 32 6" Result [31:0] $end
$var wire 1 7" Negative $end
$var wire 1 8" Cout $end
$var wire 32 9" B [31:0] $end
$upscope $end
$scope module alu_src_mux $end
$var wire 32 :" a [31:0] $end
$var wire 32 ;" b [31:0] $end
$var wire 1 @ s $end
$var wire 32 <" c [31:0] $end
$upscope $end
$scope module branch_adder $end
$var wire 32 =" a [31:0] $end
$var wire 32 >" b [31:0] $end
$var wire 32 ?" c [31:0] $end
$upscope $end
$upscope $end
$scope module Fetch $end
$var wire 1 2 PCSrcE $end
$var wire 32 @" PCTargetE [31:0] $end
$var wire 1 ! clk $end
$var wire 1 " rst $end
$var wire 32 A" PC_F [31:0] $end
$var wire 32 B" PCPlus4F [31:0] $end
$var wire 32 C" PCPlus4D [31:0] $end
$var wire 32 D" PCF [31:0] $end
$var wire 32 E" PCD [31:0] $end
$var wire 32 F" InstrF [31:0] $end
$var wire 32 G" InstrD [31:0] $end
$var reg 32 H" InstrF_reg [31:0] $end
$var reg 32 I" PCF_reg [31:0] $end
$var reg 32 J" PCPlus4F_reg [31:0] $end
$scope module IMEM $end
$var wire 1 " rst $end
$var wire 32 K" RD [31:0] $end
$var wire 32 L" A [31:0] $end
$upscope $end
$scope module PC_MUX $end
$var wire 32 M" b [31:0] $end
$var wire 1 2 s $end
$var wire 32 N" c [31:0] $end
$var wire 32 O" a [31:0] $end
$upscope $end
$scope module PC_adder $end
$var wire 32 P" b [31:0] $end
$var wire 32 Q" c [31:0] $end
$var wire 32 R" a [31:0] $end
$upscope $end
$scope module Program_Counter $end
$var wire 32 S" PC_Next [31:0] $end
$var wire 1 ! clk $end
$var wire 1 " rst $end
$var reg 32 T" PC [31:0] $end
$upscope $end
$upscope $end
$scope module Memory $end
$var wire 32 U" ALU_ResultM [31:0] $end
$var wire 32 V" ALU_ResultW [31:0] $end
$var wire 1 9 MemWriteM $end
$var wire 32 W" PCPlus4M [31:0] $end
$var wire 32 X" PCPlus4W [31:0] $end
$var wire 5 Y" RD_M [4:0] $end
$var wire 5 Z" RD_W [4:0] $end
$var wire 32 [" ReadDataW [31:0] $end
$var wire 1 ) RegWriteM $end
$var wire 1 ( RegWriteW $end
$var wire 1 & ResultSrcM $end
$var wire 1 % ResultSrcW $end
$var wire 32 \" WriteDataM [31:0] $end
$var wire 1 ! clk $end
$var wire 1 " rst $end
$var wire 32 ]" ReadDataM [31:0] $end
$var reg 32 ^" ALU_ResultM_r [31:0] $end
$var reg 32 _" PCPlus4M_r [31:0] $end
$var reg 5 `" RD_M_r [4:0] $end
$var reg 32 a" ReadDataM_r [31:0] $end
$var reg 1 b" RegWriteM_r $end
$var reg 1 % ResultSrcM_r $end
$scope module dmem $end
$var wire 32 c" A [31:0] $end
$var wire 32 d" WD [31:0] $end
$var wire 1 9 WE $end
$var wire 1 ! clk $end
$var wire 1 " rst $end
$var wire 32 e" RD [31:0] $end
$upscope $end
$upscope $end
$scope module WriteBack $end
$var wire 32 f" ALU_ResultW [31:0] $end
$var wire 32 g" PCPlus4W [31:0] $end
$var wire 32 h" ReadDataW [31:0] $end
$var wire 1 % ResultSrcW $end
$var wire 1 ! clk $end
$var wire 1 " rst $end
$var wire 32 i" ResultW [31:0] $end
$scope module result_mux $end
$var wire 32 j" a [31:0] $end
$var wire 32 k" b [31:0] $end
$var wire 1 % s $end
$var wire 32 l" c [31:0] $end
$upscope $end
$upscope $end
$upscope $end
$upscope $end
$enddefinitions $end
$comment Show the parameter values. $end
$dumpall
$end
#0
$dumpvars
b0 l"
b0 k"
b0 j"
b0 i"
b0 h"
b0 g"
b0 f"
b0 e"
b0 d"
b0 c"
0b"
b0 a"
b0 `"
b0 _"
b0 ^"
b0 ]"
b0 \"
b0 ["
b0 Z"
b0 Y"
b0 X"
b0 W"
b0 V"
b0 U"
bx T"
bx S"
bx R"
bx Q"
b100 P"
bx O"
bx N"
b0 M"
bx L"
b0 K"
b0 J"
b0 I"
b0 H"
b0 G"
b0 F"
b0 E"
bx D"
b0 C"
bx B"
bx A"
b0 @"
b0 ?"
b0 >"
b0 ="
b0 <"
b0 ;"
b0 :"
b0 9"
08"
07"
b0 6"
b0 5"
04"
03"
b0 2"
b0 1"
00"
b0 /"
0."
b0 -"
b0 ,"
b0 +"
0*"
b0 )"
b0 ("
b0 '"
b0 &"
1%"
b0 $"
b0 #"
b0 ""
b0 !"
b0 ~
b0 }
b0 |
b0 {
b0 z
b0 y
b0 x
b0 w
b0 v
b0 u
b0 t
b0 s
b0 r
b0 q
b0 p
b0 o
b0 n
b0 m
b0 l
b0 k
b0 j
b0 i
b0 h
b0 g
b0 f
b0 e
b0 d
b0 c
b0 b
0a
0`
b0 _
b0 ^
b0 ]
b0 \
b0 [
0Z
b0 Y
b0 X
b0 W
0V
0U
b0 T
b0 S
b0 R
0Q
b0 P
b0 O
b0 N
b0 M
b0 L
0K
0J
b0 I
b0 H
b0 G
b0 F
b0 E
b0 D
b0 C
b0 B
b0 A
0@
b0 ?
b0 >
0=
b0 <
b0 ;
0:
09
b0 8
b0 7
b0 6
b0 5
b0 4
b0 3
02
b0 1
b0 0
b0 /
b0 .
b0 -
b0 ,
b0 +
0*
0)
0(
0'
0&
0%
b0 $
b0 #
0"
1!
$end
#50
0!
#100
b100 A"
b100 N"
b100 S"
b100 B"
b100 O"
b100 Q"
b0 D"
b0 L"
b0 R"
b0 T"
1!
#150
0!
#200
b10100000000001010010011 F"
b10100000000001010010011 K"
1"
1!
#250
0!
#300
1K
1V
b101 S
b101 r
bx M
bx v
b1100000000001100010011 F"
b1100000000001100010011 K"
b101 t
b10011 b
b10011 j
b10011 m
b1000 A"
b1000 N"
b1000 S"
b100 6
b100 O
b100 C"
b10100000000001010010011 ;
b10100000000001010010011 R
b10100000000001010010011 q
b10100000000001010010011 G"
b1000 B"
b1000 O"
b1000 Q"
b100 D"
b100 L"
b100 R"
b100 T"
b100 J"
b10100000000001010010011 H"
1!
#350
0!
#400
0%"
b101 '"
b101 6"
b11 S
b11 r
b11000101000001110110011 F"
b11000101000001110110011 K"
b101 5"
b11 t
b1100 A"
b1100 N"
b1100 S"
b101 &"
b101 9"
b101 <"
b1000 6
b1000 O
b1000 C"
b100 8
b100 P
b100 E"
b1100000000001100010011 ;
b1100000000001100010011 R
b1100000000001100010011 q
b1100000000001100010011 G"
b1100 B"
b1100 O"
b1100 Q"
b1000 D"
b1000 L"
b1000 R"
b1000 T"
b100 5
b100 E
b100 |
b100 \
b101 -
b101 H
b101 ""
b101 _
b101 1
b101 ("
b101 ?"
b101 @"
b101 M"
b101 <
b101 C
b101 Y
b101 z
b101 ;"
b101 >"
bx /
bx G
bx ^
bx !"
bx :"
1@
1*
1`
b1000 J"
b100 I"
b1100000000001100010011 H"
1!
#450
0!
#500
1K
0V
b11 '"
b11 6"
b110 S
b110 r
bx N
bx w
b10 f
b10 k
b10 o
b10010000000011 F"
b10010000000011 K"
b110 t
b101 s
b110011 b
b110011 j
b110011 m
b11 5"
b10000 A"
b10000 N"
b10000 S"
b1100 6
b1100 O
b1100 C"
b1000 8
b1000 P
b1000 E"
b11000101000001110110011 ;
b11000101000001110110011 R
b11000101000001110110011 q
b11000101000001110110011 G"
b11 &"
b11 9"
b11 <"
bx ]"
bx e"
b10000 B"
b10000 O"
b10000 Q"
b1100 D"
b1100 L"
b1100 R"
b1100 T"
b1100 J"
b1000 I"
b11000101000001110110011 H"
b1000 5
b1000 E
b1000 |
b1000 \
b100 7
b100 D
b100 [
b100 {
b100 ="
b110 -
b110 H
b110 ""
b110 _
b111 1
b111 ("
b111 ?"
b111 @"
b111 M"
b11 <
b11 C
b11 Y
b11 z
b11 ;"
b11 >"
b101 ?
b101 )"
b101 /"
b101 U"
b101 c"
bx #
bx $"
bx \"
bx d"
bx ,"
b100 4
b100 }
b100 W"
b100 +"
b101 ,
b101 #"
b101 Y"
b101 -"
1)
1."
1!
#550
0!
#600
1V
x7"
x%"
x4"
bx '"
bx 6"
b0 S
b0 r
b0 M
b0 v
b0 N
b0 w
1J
b0 f
b0 k
b0 o
b100000000010010010011 F"
b100000000010010010011 K"
b0 t
b0 s
b10 c
b10 h
b11 b
b11 j
b11 m
b10100 A"
b10100 N"
b10100 S"
b101 $
b101 I
b101 u
b101 i"
b101 l"
bx &"
bx 9"
bx <"
bx 5"
b10000 6
b10000 O
b10000 C"
b1100 8
b1100 P
b1100 E"
b10010000000011 ;
b10010000000011 R
b10010000000011 q
b10010000000011 G"
b10100 B"
b10100 O"
b10100 Q"
b10000 D"
b10000 L"
b10000 R"
b10000 T"
bx +
bx ["
bx a"
bx h"
bx k"
b101 >
b101 V"
b101 ^"
b101 f"
b101 j"
b100 3
b100 X"
b100 g"
b100 _"
b101 .
b101 L
b101 x
b101 Z"
b101 `"
1(
1b"
b11 ?
b11 )"
b11 /"
b11 U"
b11 c"
b1000 4
b1000 }
b1000 W"
b1000 +"
b110 ,
b110 #"
b110 Y"
b110 -"
b1100 5
b1100 E
b1100 |
b1100 \
b1000 7
b1000 D
b1000 [
b1000 {
b1000 ="
b111 -
b111 H
b111 ""
b111 _
b1110 1
b1110 ("
b1110 ?"
b1110 @"
b1110 M"
b110 <
b110 C
b110 Y
b110 z
b110 ;"
b110 >"
bx 0
bx F
bx ]
bx ~
bx 1"
0@
b10000 J"
b1100 I"
b10010000000011 H"
1!
#650
0!
#700
04"
07"
1%"
b0 '"
b0 6"
b1 S
b1 r
bx M
bx v
0J
b100101000000010100110011 F"
b100101000000010100110011 K"
b1 t
b0 c
b0 h
b10011 b
b10011 j
b10011 m
b0 5"
b11000 A"
b11000 N"
b11000 S"
b10100 6
b10100 O
b10100 C"
b10000 8
b10000 P
b10000 E"
b100000000010010010011 ;
b100000000010010010011 R
b100000000010010010011 q
b100000000010010010011 G"
b0 &"
b0 9"
b0 <"
b11 $
b11 I
b11 u
b11 i"
b11 l"
b11000 B"
b11000 O"
b11000 Q"
b10100 D"
b10100 L"
b10100 R"
b10100 T"
b10100 J"
b10000 I"
b100000000010010010011 H"
b10000 5
b10000 E
b10000 |
b10000 \
b1100 7
b1100 D
b1100 [
b1100 {
b1100 ="
b1000 -
b1000 H
b1000 ""
b1000 _
b1100 1
b1100 ("
b1100 ?"
b1100 @"
b1100 M"
b0 <
b0 C
b0 Y
b0 z
b0 ;"
b0 >"
b0 /
b0 G
b0 ^
b0 !"
b0 :"
b0 0
b0 F
b0 ]
b0 ~
b0 1"
1'
1a
1@
bx ?
bx )"
bx /"
bx U"
bx c"
b1100 4
b1100 }
b1100 W"
b1100 +"
b111 ,
b111 #"
b111 Y"
b111 -"
b11 >
b11 V"
b11 ^"
b11 f"
b11 j"
b1000 3
b1000 X"
b1000 g"
b1000 _"
b110 .
b110 L
b110 x
b110 Z"
b110 `"
1!
#750
0!
#800
0%"
b1 '"
b1 6"
1K
0V
b1001 S
b1001 r
bx N
bx w
b10 f
b10 k
b10 o
bx F"
bx K"
b1 5"
b1001 t
b1000 s
b110011 b
b110011 j
b110011 m
b11100 A"
b11100 N"
b11100 S"
bx $
bx I
bx u
bx i"
bx l"
b0 ]"
b0 e"
b1 &"
b1 9"
b1 <"
b11000 6
b11000 O
b11000 C"
b10100 8
b10100 P
b10100 E"
b100101000000010100110011 ;
b100101000000010100110011 R
b100101000000010100110011 q
b100101000000010100110011 G"
b11100 B"
b11100 O"
b11100 Q"
b11000 D"
b11000 L"
b11000 R"
b11000 T"
bx >
bx V"
bx ^"
bx f"
bx j"
b1100 3
b1100 X"
b1100 g"
b1100 _"
b111 .
b111 L
b111 x
b111 Z"
b111 `"
b0 ?
b0 )"
b0 /"
b0 U"
b0 c"
b0 #
b0 $"
b0 \"
b0 d"
b0 ,"
b10000 4
b10000 }
b10000 W"
b10000 +"
b1000 ,
b1000 #"
b1000 Y"
b1000 -"
1&
10"
b10100 5
b10100 E
b10100 |
b10100 \
b10000 7
b10000 D
b10000 [
b10000 {
b10000 ="
b1001 -
b1001 H
b1001 ""
b1001 _
b10001 1
b10001 ("
b10001 ?"
b10001 @"
b10001 M"
b1 <
b1 C
b1 Y
b1 z
b1 ;"
b1 >"
bx /
bx G
bx ^
bx !"
bx :"
0'
0a
b11000 J"
b10100 I"
b100101000000010100110011 H"
1!
#850
0!
#900
xK
bx W
bx g
bx l
xV
x7"
x%"
x4"
bx S
bx r
bx T
bx e
bx n
bx p
xQ
xJ
xU
bx f
bx k
bx o
bx '"
bx 6"
bx t
bx s
bx d
bx i
bx c
bx h
bx b
bx j
bx m
b100000 A"
b100000 N"
b100000 S"
b11100 6
b11100 O
b11100 C"
b11000 8
b11000 P
b11000 E"
bx ;
bx R
bx q
bx G"
bx &"
bx 9"
bx <"
bx 5"
bx ]"
bx e"
b0 $
b0 I
b0 u
b0 i"
b0 l"
b100000 B"
b100000 O"
b100000 Q"
b11100 D"
b11100 L"
b11100 R"
b11100 T"
b11100 J"
b11000 I"
bx H"
b11000 5
b11000 E
b11000 |
b11000 \
b10100 7
b10100 D
b10100 [
b10100 {
b10100 ="
b1010 -
b1010 H
b1010 ""
b1010 _
b11101 1
b11101 ("
b11101 ?"
b11101 @"
b11101 M"
b1001 <
b1001 C
b1001 Y
b1001 z
b1001 ;"
b1001 >"
bx 0
bx F
bx ]
bx ~
bx 1"
0@
b1 ?
b1 )"
b1 /"
b1 U"
b1 c"
bx #
bx $"
bx \"
bx d"
bx ,"
b10100 4
b10100 }
b10100 W"
b10100 +"
b1001 ,
b1001 #"
b1001 Y"
b1001 -"
0&
00"
b0 +
b0 ["
b0 a"
b0 h"
b0 k"
b0 >
b0 V"
b0 ^"
b0 f"
b0 j"
b10000 3
b10000 X"
b10000 g"
b10000 _"
b1000 .
b1000 L
b1000 x
b1000 Z"
b1000 `"
1%
1!
#950
0!
#1000
bx A"
bx N"
bx S"
b1 $
b1 I
b1 u
b1 i"
b1 l"
x2
b100000 6
b100000 O
b100000 C"
b11100 8
b11100 P
b11100 E"
b100100 B"
b100100 O"
b100100 Q"
b100000 D"
b100000 L"
b100000 R"
b100000 T"
bx +
bx ["
bx a"
bx h"
bx k"
b1 >
b1 V"
b1 ^"
b1 f"
b1 j"
b10100 3
b10100 X"
b10100 g"
b10100 _"
b1001 .
b1001 L
b1001 x
b1001 Z"
b1001 `"
0%
bx ?
bx )"
bx /"
bx U"
bx c"
b11000 4
b11000 }
b11000 W"
b11000 +"
b1010 ,
b1010 #"
b1010 Y"
b1010 -"
b11100 5
b11100 E
b11100 |
b11100 \
b11000 7
b11000 D
b11000 [
b11000 {
b11000 ="
bx -
bx H
bx ""
bx _
bx 1
bx ("
bx ?"
bx @"
bx M"
bx <
bx C
bx Y
bx z
bx ;"
bx >"
bx A
bx B
bx X
bx y
bx 2"
x=
x'
xa
x:
xZ
x@
x*
x`
b100000 J"
b11100 I"
1!
#1050
0!
#1100
b100100 6
b100100 O
b100100 C"
b100000 8
b100000 P
b100000 E"
bx $
bx I
bx u
bx i"
bx l"
bx B"
bx O"
bx Q"
bx D"
bx L"
bx R"
bx T"
b100100 J"
b100000 I"
b100000 5
b100000 E
b100000 |
b100000 \
b11100 7
b11100 D
b11100 [
b11100 {
b11100 ="
b11100 4
b11100 }
b11100 W"
b11100 +"
bx ,
bx #"
bx Y"
bx -"
x&
x0"
x9
x*"
x)
x."
bx >
bx V"
bx ^"
bx f"
bx j"
b11000 3
b11000 X"
b11000 g"
b11000 _"
b1010 .
b1010 L
b1010 x
b1010 Z"
b1010 `"
1!
#1150
0!
#1200
bx 6
bx O
bx C"
bx 8
bx P
bx E"
b11100 3
b11100 X"
b11100 g"
b11100 _"
bx .
bx L
bx x
bx Z"
bx `"
x%
x(
xb"
b100000 4
b100000 }
b100000 W"
b100000 +"
b100100 5
b100100 E
b100100 |
b100100 \
b100000 7
b100000 D
b100000 [
b100000 {
b100000 ="
bx J"
bx I"
1!
